{
    "layer": "top",
    "position": "top",
    "modules-left": [
        "custom/playericon",
        "mpris"
    ],
    "modules-center": [
        "hyprland/workspaces"
    ],
    "modules-right": [
        "tray",
        "custom/clipboard",
        "custom/weather",
        "clock",
        "pulseaudio",
        "network",
        "battery",
        "custom/notification"
    ],
    "reload_style_on_change": true,
    "custom/sep": {
        "format": "🭲{:%H}",
        "tooltip": false
    },
    "custom/logo": {
        "format": "",
        "tooltip": false
    },
    "hyprland/workspaces": {
        "format": "{icon} ",
        "format-icons": {
            "active": "<span font='13'>󰪥</span>",
            "default": "",
            "empty": ""
        },
        "all-outputs": "false",
        "persistent-workspaces": {
            "HDMI-A-1": [11,12,13,14,15],
            "DVI-D-1": [1,2,3]
        },
        "on-scroll-up": "hyprctl dispatch split:workspace r+1",
        "on-scroll-down": "hyprctl dispatch split:workspace r-1",
    },
    "idle_inhibitor": {
        "format": "<span font='12'>{icon} </span>",
        "format-icons": {
            "activated": "󰈈",
            "deactivated": "󰈉"
        }
    },
    "custom/weather": {
        "format": "{}",
        "return-type": "json",
        "exec": "~/.config/waybar/scripts/weather.sh",
        "interval": 10,
        "on-click": "firefox https://wttr.in"
    },
    "custom/clipboard": {
        "format": " ",
        "on-click": "cliphist list | rofi -dmenu | cliphist decode | wl-copy",
        "interval": 86400
    },
   "custom/notification": {
        "tooltip": false,
        "format": "{icon}  ",
        "format-icons": {
             "notification": "<span foreground='red'><sup></sup></span>",
             "none": "",
             "dnd-notification": "<span foreground='red'><sup></sup></span>",
             "dnd-none": "",
             "inhibited-notification": "<span foreground='red'><sup></sup></span>",
             "inhibited-none": "",
             "dnd-inhibited-notification": "<span foreground='red'><sup></sup></span>",
             "dnd-inhibited-none": ""
        },
        "return-type": "json",
        "exec-if": "which swaync-client",
        "exec": "swaync-client -swb",
        "on-click": "swaync-client -t -sw",
        "on-click-right": "swaync-client -d -sw",
        "escape": true
   },
    "clock": {
        "format": "<big>  {:%H:%M</big>\n<small>%a %m/%d</small>}",
        "interval": 1,
        "tooltip-format": "\n<big>{:%Y %B}</big>\n<tt><small>{calendar}</small></tt>",
        "calendar-weeks-pos": "right",
        "today-format": "<span color='#7645AD'><b><u>{}</u></b></span>",
        "format-calendar": "<span color='#aeaeae'><b>{}</b></span>",
        "format-calendar-weeks": "<span color='#aeaeae'><b>W{:%V}</b></span>",
        "format-calendar-weekdays": "<span color='#aeaeae'><b>{}</b></span>"
    },
    "bluetooth": {
        "format-on": "",
        "format-off": "",
        "format-disabled": "󰂲",
        "format-connected": "󰂴",
        "format-connected-battery": "{device_battery_percentage}% 󰂴",
        "tooltip-format": "{controller_alias}\t{controller_address}\n\n{num_connections} connected",
        "tooltip-format-connected": "{controller_alias}\t{controller_address}\n\n{num_connections} connected\n\n{device_enumerate}",
        "tooltip-format-enumerate-connected": "{device_alias}\t{device_address}",
        "tooltip-format-enumerate-connected-battery": "{device_alias}\t{device_address}\t{device_battery_percentage}%",
        "on-click": "rofi-bluetooth",
    },
    "network": {
        "format-wifi": " ",
        "format-ethernet": " ",
        "format-disconnected": " ",
        "tooltip-format": "{ipaddr}",
        "tooltip-format-wifi": "{essid} ({signalStrength}%)  | {ipaddr}",
        "tooltip-format-ethernet": "{ifname} 🖧 | {ipaddr}",
        "on-click": "swaync-client -t -sw",
        "on-click-right": "swaync-client -d -sw",
    },
    "battery": {
        "interval": 1,
        "states": {
            "good": 95,
            "warning": 30,
            "critical": 20
        },
        "format": "{capacity}%  {icon} ",
        "format-charging": "{capacity}% 󰂄 ",
        "format-plugged": "{capacity}% 󰂄 ",
        "format-alt": "{time} {icon}",
        "format-icons": [
            "󰁻",
            "󰁼",
            "󰁾",
            "󰂀",
            "󰂂",
            "󰁹"
        ],
    },
    "backlight": {
        "device": "intel_backlight",
        "format": "<span font='12'>{icon}</span>",
        "format-icons": [
            "",
            "",
            "",
            "",
            "",
            "",
            "",
            "",
            "",
            "",
        ],
        "on-scroll-down": "light -A 10",
        "on-scroll-up": "light -U 10",
        "smooth-scrolling-threshold": 1
    },
    "disk": {
        "interval": 30,
        "format": "  {free}",
        "path": "/"
    },
    "custom/colorpicker": {
        "format": "{}",
        "return-type": "json",
        "interval": "once",
        "exec": "~/.config/waybar/scripts/colorpicker.sh -j",
        "on-click": "sleep 1 && ~/.config/waybar/scripts/colorpicker.sh",
        "signal": 1
    },
    "cpu": {
        "interval": 1,
        "format": "  {usage}%",
        "min-length": 6,
        "max-length": 6,
        "format-icons": [
            "▁",
            "▂",
            "▃",
            "▄",
            "▅",
            "▆",
            "▇",
            "█"
        ],
    },
    "memory": {
        "format": "  {avail}GiB"
    },
    "custom/playericon": {
    "format": "<tt>{icon}</tt>  {}",
    "return-type": "json",
    "format-icons": {
            "default": " ",
            "firefox": " ",
            "plasma-browser-integration": " ",
            "spotify": " ",
            "smplayer": " ",
    },
    "max-length":70,
    "exec": "playerctl metadata --format '{\"text\": \"\", \"alt\": \"{{playerName}}\", \"class\": \"{{status}}\"}' -F",
    "on-click": "playerctl play-pause",
    },
    "mpris": {
        "format": "<big>{title}</big>\n<small><span font-stretch='semi-condensed'>{artist}</span></small>",
        "format-paused": "",
        // "format-paused": "<i><big>{title}</big>\n<small><span font-stretch='semi-condensed'>{artist}</span></small></i>  ",
        "player-icons": {
            "default": " ",
            "plasma-browser-integration": " ",
            "spotify": " ",
            "smplayer": " ",
            "mpv": "🎵"
        },
        "ignored-players": ["firefox"],
        "status-icons": {
            "paused": " "
        },
        "dynamic-order": ["artist", "title"],
        "dynamic-importance-order": ["title", "artist"],
        "title-len": 50,
        "ellipsis": "…"
    },
    "hyprland/window": {
        "format": "{class}\n<small>{title}</small>",
        "rewrite": {
            "(.*) - Mozilla Firefox": "🌎 $1",
            "(.*) - zsh": "> [$1]"
        }
    },
    "temperature": {
        "format": " {temperatureC}°C",
        "format-critical": " {temperatureC}°C",
        "interval": 1,
        "critical-threshold": 80,
        "on-click": "foot btop",
    },
    "pulseaudio": {
        "format": "{icon}",
        "format-bluetooth": "󰂰",
        // "format-muted": "<span font='12'></span>",
        "format-icons": {
            "headphones": "",
            "bluetooth": "󰥰",
            "handsfree": "",
            "headset": "󱡬",
            "phone": "",
            "portable": "",
            "car": "",
            "default": [
                " ",
                " ",
                " "
            ]
        },
        "justify": "center",
        "on-click": "swaync-client -t -sw",
        "on-click-right": "swaync-client -d -sw",
        "tooltip-format": "{icon}  {volume}%"
    },
    "jack": {
        "format": "{} 󱎔",
        "format-xrun": "{xruns} xruns",
        "format-disconnected": "DSP off",
        "realtime": true
    },
    "tray": {
        "icon-size": 14,
        "spacing": 10
    },
    "upower": {
        "show-icon": false,
        "hide-if-empty": true,
        "tooltip": true,
        "tooltip-spacing": 20
    },
    "custom/powerDraw": {
        "format": "{}",
        "interval": 1,
        "exec": "~/.config/waybar/scripts/powerdraw.sh",
        "return-type": "json"
    }
}
